<?xml version="1.0" standalone="no"?>
<!DOCTYPE svg PUBLIC "-//W3C//DTD SVG 20010904//EN"
 "http://www.w3.org/TR/2001/REC-SVG-20010904/DTD/svg10.dtd">
<svg version="1.0" xmlns="http://www.w3.org/2000/svg"
 width="2500.000000pt" height="2500.000000pt" viewBox="0 0 2500.000000 2500.000000"
 preserveAspectRatio="xMidYMid meet">
<metadata>
Created by potrace 1.14, written by Peter Selinger 2001-2017
</metadata>
<g transform="translate(0.000000,2500.000000) scale(0.100000,-0.100000)"
fill="#000000" stroke="none">
<path d="M5048 22455 c-2 -1 -41 -6 -88 -9 -47 -4 -94 -9 -105 -12 -23 -4 -64
-12 -115 -20 -111 -18 -371 -96 -432 -130 -16 -8 -28 -13 -28 -10 0 9 -225
-106 -315 -161 -76 -47 -112 -71 -200 -135 -5 -4 -57 -47 -115 -96 -426 -360
-744 -906 -845 -1448 -40 -222 -49 -330 -45 -549 11 -546 2 -1541 -15 -1729
-2 -22 -7 -95 -11 -161 -3 -66 -8 -138 -10 -160 -1 -22 -5 -80 -9 -130 -3 -49
-8 -101 -10 -115 -2 -14 -7 -59 -10 -100 -3 -41 -8 -91 -10 -110 -4 -33 -6
-52 -20 -180 -3 -30 -8 -66 -10 -80 -2 -14 -7 -47 -10 -75 -3 -27 -7 -61 -10
-75 -2 -14 -7 -45 -10 -70 -3 -25 -15 -101 -26 -170 -28 -176 -34 -212 -49
-290 -6 -30 -13 -66 -16 -80 -2 -14 -9 -45 -14 -70 -5 -25 -12 -56 -14 -70 -3
-14 -16 -77 -31 -140 -14 -63 -28 -122 -30 -130 -1 -8 -9 -35 -16 -60 -7 -25
-13 -49 -15 -55 -29 -128 -91 -337 -152 -515 -28 -80 -55 -161 -62 -180 -7
-19 -21 -54 -31 -77 -10 -24 -19 -47 -19 -51 0 -5 -6 -22 -14 -38 -8 -16 -38
-83 -66 -149 -50 -113 -147 -308 -193 -385 -96 -163 -203 -324 -274 -411 -123
-152 -301 -337 -383 -398 -19 -14 -44 -34 -55 -44 -49 -45 -251 -171 -360
-226 -120 -60 -272 -120 -375 -148 -100 -27 -272 -62 -334 -68 -34 -3 -69 -8
-79 -11 -16 -5 -17 -42 -15 -636 3 -552 5 -631 18 -633 36 -5 145 -16 150 -15
3 1 17 -3 31 -9 15 -5 45 -12 68 -16 276 -41 668 -226 931 -440 81 -67 247
-227 300 -290 14 -17 46 -55 71 -85 94 -111 233 -320 328 -490 90 -160 291
-605 291 -643 0 -7 4 -17 9 -23 8 -8 119 -328 126 -364 2 -8 15 -55 30 -105
15 -49 45 -160 67 -245 41 -161 42 -166 58 -240 6 -25 13 -56 16 -70 37 -168
108 -571 128 -725 3 -22 11 -74 16 -115 6 -41 13 -93 16 -115 2 -22 6 -56 9
-75 3 -19 7 -60 10 -90 3 -30 7 -71 10 -90 2 -19 7 -66 10 -105 3 -38 8 -92
11 -120 3 -27 7 -77 9 -110 3 -33 7 -89 10 -125 2 -36 7 -103 10 -150 3 -47 7
-114 10 -150 18 -270 25 -1061 15 -1765 -1 -104 0 -214 4 -242 3 -29 9 -76 12
-105 3 -28 8 -60 10 -72 2 -12 7 -37 9 -56 3 -19 12 -64 20 -100 8 -36 18 -78
21 -95 20 -98 116 -356 189 -504 37 -75 124 -232 134 -241 4 -3 28 -39 56 -80
173 -258 453 -527 728 -700 117 -73 313 -169 442 -215 107 -39 331 -99 405
-109 25 -3 56 -8 70 -11 14 -3 66 -8 115 -12 117 -10 14956 -10 15055 -1 69 7
185 24 220 31 8 2 33 7 55 11 70 14 244 65 344 103 372 139 734 400 1001 723
79 95 94 116 180 245 40 59 160 271 160 281 0 2 15 36 34 76 33 72 122 318
130 361 2 12 11 49 19 82 9 33 18 74 21 90 3 17 8 40 10 52 3 11 8 43 12 70 3
26 8 57 10 67 12 67 17 198 14 381 -9 676 -3 1400 15 1695 2 36 7 112 10 170
11 188 15 235 36 455 6 61 13 135 15 165 3 30 16 143 29 250 27 217 28 223 60
425 22 137 25 158 30 175 2 8 6 37 10 64 3 27 8 52 10 55 1 3 6 22 9 41 9 52
12 70 46 224 30 136 81 347 101 416 5 19 11 42 13 50 45 182 203 634 280 802
14 31 26 59 26 62 0 8 131 273 169 341 288 518 653 897 1071 1112 193 100 457
188 650 217 69 10 135 19 155 20 20 1 20 8 20 635 0 569 -2 634 -16 636 -8 2
-41 6 -71 9 -31 4 -66 9 -79 11 -149 29 -150 29 -209 44 -596 154 -1102 567
-1473 1201 -51 88 -217 412 -217 424 0 3 -11 29 -24 58 -93 205 -232 614 -311
918 -29 111 -32 124 -74 310 -35 157 -64 293 -76 365 -3 17 -14 84 -25 150
-25 144 -27 157 -35 215 -3 25 -8 56 -10 70 -3 14 -7 43 -10 65 -2 21 -9 73
-15 115 -5 41 -12 98 -15 125 -3 28 -7 64 -10 81 -2 17 -6 64 -10 105 -3 41
-8 92 -11 114 -7 56 -12 117 -19 205 -3 41 -7 104 -10 140 -11 148 -22 334
-32 575 -7 178 -9 1060 -2 1435 4 262 -10 417 -57 625 -21 88 -60 228 -80 280
-4 11 -8 25 -10 30 -16 62 -147 343 -198 423 -14 23 -26 46 -26 52 0 5 -3 10
-8 10 -4 0 -16 17 -27 37 -33 62 -175 246 -265 345 -68 75 -182 181 -303 283
-22 19 -187 135 -192 135 -2 0 -21 12 -42 26 -59 40 -298 157 -393 192 -104
38 -233 75 -337 97 -106 23 -101 22 -168 30 -32 4 -68 10 -80 13 -19 5 -15001
12 -15007 7z m8532 -4669 c36 -4 110 -11 165 -16 55 -6 109 -12 120 -14 11 -2
45 -7 75 -11 180 -23 487 -97 672 -161 663 -230 1130 -590 1465 -1129 34 -54
134 -260 163 -335 116 -301 174 -619 174 -955 0 -104 -10 -271 -20 -318 -2
-12 -6 -38 -9 -58 -11 -75 -48 -230 -75 -314 -154 -483 -455 -907 -854 -1204
-151 -112 -190 -136 -341 -213 -201 -102 -452 -185 -620 -207 -6 0 -11 -14
-11 -29 -2 -28 0 -29 80 -41 44 -7 91 -14 104 -16 220 -35 498 -113 700 -197
718 -298 1230 -842 1455 -1543 37 -114 83 -311 92 -388 3 -25 7 -54 9 -64 13
-63 21 -223 21 -393 0 -226 -9 -355 -35 -500 -5 -30 -12 -72 -16 -94 -14 -90
-50 -233 -89 -356 -63 -195 -148 -383 -248 -550 -290 -485 -777 -891 -1352
-1126 -33 -14 -69 -29 -80 -34 -143 -61 -548 -179 -705 -205 -19 -3 -51 -10
-70 -15 -19 -5 -53 -11 -75 -14 -22 -3 -51 -7 -65 -10 -33 -6 -162 -24 -225
-31 -27 -3 -63 -8 -80 -10 -16 -2 -70 -6 -120 -10 -49 -4 -112 -9 -140 -12
-27 -3 -1022 -6 -2210 -7 -1989 -3 -2165 -1 -2221 14 -144 39 -249 140 -295
283 -20 62 -20 101 -20 4993 -1 3705 2 4942 11 4975 41 157 169 283 319 314
60 12 4231 13 4351 1z"/>
<path d="M10590 16450 c-4 -3 -7 -715 -7 -1583 l0 -1578 1116 4 c1081 5 1172
6 1311 27 36 5 86 12 111 15 113 14 288 52 399 86 52 16 102 31 110 33 16 4
96 34 150 57 63 26 244 121 300 157 327 214 537 520 615 897 26 129 30 170 30
360 0 197 -6 266 -35 391 -125 537 -495 889 -1100 1048 -110 29 -122 32 -250
50 -104 16 -157 22 -270 32 -87 8 -2468 12 -2480 4z"/>
<path d="M10590 12030 c-4 -3 -7 -787 -7 -1742 l0 -1738 26 -1 c130 -3 2522 1
2571 5 36 3 105 8 154 11 49 4 98 8 109 11 10 2 45 6 76 9 31 4 63 8 71 10 8
2 38 7 65 11 28 3 53 8 56 10 4 2 24 6 45 10 80 12 266 65 388 109 705 255
1076 784 1080 1540 0 141 -10 330 -19 345 -2 3 -6 26 -10 50 -7 51 -11 64 -54
206 -90 292 -266 533 -526 720 -241 173 -546 291 -955 371 -14 2 -38 6 -55 8
-16 2 -59 8 -95 14 -36 6 -94 13 -130 16 -36 3 -81 7 -100 10 -113 14 -430 18
-1493 19 -654 1 -1192 -1 -1197 -4z"/>
</g>
</svg>
